null;1;146;1;2019-01-15
null;2;315;1;2019-01-15
null;3;409;1;2019-01-15
null;4;1103;1;2019-01-15
null;5;1105;1;2019-01-15
null;6;808;1;2019-02-15
null;7;1305;50;2019-02-15
null;8;2501;1;2019-02-15
null;9;315;1;2019-03-15
null;10;320;2;2019-03-15
null;11;321;2;2019-03-15
null;12;322;2;2019-03-15
